<?xml version="1.0" encoding="UTF-8"?>
<!DOCTYPE suite SYSTEM "http://testng.org/testng-1.0.dtd">
<suite guice-stage="DEVELOPMENT" verbose="0" name="Failed suite [QAS Demo]">
  <test name="Code Driven Test(failed)">
    <classes>
      <class name="com.flightbook.tests.FlightRoundTripTest">
        <methods>
          <include name="testRoundTrip"/>
          <include name="afterSuit"/>
          <include name="setupMethod"/>
          <include name="setupSuit"/>
          <include name="setupTest"/>
          <include name="afterClass"/>
          <include name="setup"/>
          <include name="afterMethod"/>
          <include name="afterTest"/>
        </methods>
      </class> <!-- com.flightbook.tests.FlightRoundTripTest -->
    </classes>
  </test> <!-- Code Driven Test(failed) -->
</suite> <!-- Failed suite [QAS Demo] -->
